#automate_fortress_management = {
#
#	available = {
#		AND = {
#			free_jobs < 3
#			free_amenities < 3
#		}
#	}
#
#	crisis = yes
#
#	buildings = {
#		# regular empires
#		holo_theatres = {
#			building = building_holo_theatres
#			available = {
#				AND = {
#					owner = { is_gestalt = no }
#					OR = {
#						owner = { holo_theatres_upkeep_affordable = yes }
#						owner = { has_policy_flag = ipa_ignore_upkeep_necessities_yes }
#					}
#				}
#			}
#		}
#		
#		# gestalt
#		maintenance_depot = {
#			building = building_maintenance_depot
#			available = {
#				AND = {
#					owner = { is_gestalt = yes }
#					OR = {
#						owner = { maintenance_depot_upkeep_affordable = yes }
#						owner = { has_policy_flag = ipa_ignore_upkeep_necessities_yes }
#					}
#				}
#			}
#		}
#	}
#}
