
automate_research_hive_planet = {
	available = {
		has_designation = col_research
		owner = { has_authority = auth_hive_mind }
		free_jobs < 3
	}

	prio_districts = {
		district_hive
	}

	buildings = {
		1 = {
			building = building_hive_capital
			available = {
				always = yes
			}
		}

	#	2 = {
	#		building = building_spawning_pool
	#		available = {
	#			AND = {
	#				owner = { spawning_pool_upkeep_affordable = yes }
	#				owner = { has_policy_flag = ipa_allow_growth_buildings }
	#			}
	#		}
	#	}

		3 = {
			building = building_research_lab_1
			available = {
				owner = {
					research_lab_1_upkeep_affordable = yes
				}
			}
		}

		4 = {
			building = building_research_lab_1
			available = {
				owner = {
					research_lab_1_upkeep_affordable = yes
				}
			}
		}

		5 = {
			building = building_research_lab_1
			available = {
				owner = {
					research_lab_1_upkeep_affordable = yes
				}
			}
		}

		6 = {
			building = building_supercomputer
			available = {
				owner = {
					supercomputer_upkeep_affordable = yes
				}
			}
		}

		7 = {
			building = building_research_lab_1
			available = {
				owner = {
					research_lab_1_upkeep_affordable = yes
				}
			}
		}

		8 = {
			building = building_research_lab_1
			available = {
				owner = {
					research_lab_1_upkeep_affordable = yes
				}
			}
		}

		9 = {
			building = building_research_lab_1
			available = {
				owner = {
					research_lab_1_upkeep_affordable = yes
				}
			}
		}

		10 = {
			building = building_research_lab_1
			available = {
				owner = {
					research_lab_1_upkeep_affordable = yes
				}
			}
		}

		11 = {
			building = building_hive_node
			available = {
				owner = {
					hive_node_upkeep_affordable = yes
				}
			}
		}

		12 = {
			building = building_research_lab_1
			available = {
				owner = {
					research_lab_1_upkeep_affordable = yes
				}
			}
		}

		13 = {
			building = building_research_lab_1
			available = {
				owner = {
					research_lab_1_upkeep_affordable = yes
				}
			}
		}

		14 = {
			building = building_research_lab_1
			available = {
				owner = {
					research_lab_1_upkeep_affordable = yes
				}
			}
		}
	}
}